%YAML 1.1
%TAG !u! tag:unity3d.com,2011:
--- !u!29 &1
OcclusionCullingSettings:
  m_ObjectHideFlags: 0
  serializedVersion: 2
  m_OcclusionBakeSettings:
    smallestOccluder: 5
    smallestHole: 0.25
    backfaceThreshold: 100
  m_SceneGUID: 00000000000000000000000000000000
  m_OcclusionCullingData: {fileID: 0}
--- !u!104 &2
RenderSettings:
  m_ObjectHideFlags: 0
  serializedVersion: 9
  m_Fog: 0
  m_FogColor: {r: 0.5, g: 0.5, b: 0.5, a: 1}
  m_FogMode: 3
  m_FogDensity: 0.01
  m_LinearFogStart: 0
  m_LinearFogEnd: 300
  m_AmbientSkyColor: {r: 0.212, g: 0.227, b: 0.259, a: 1}
  m_AmbientEquatorColor: {r: 0.114, g: 0.125, b: 0.133, a: 1}
  m_AmbientGroundColor: {r: 0.047, g: 0.043, b: 0.035, a: 1}
  m_AmbientIntensity: 1
  m_AmbientMode: 3
  m_SubtractiveShadowColor: {r: 0.42, g: 0.478, b: 0.627, a: 1}
  m_SkyboxMaterial: {fileID: 0}
  m_HaloStrength: 0.5
  m_FlareStrength: 1
  m_FlareFadeSpeed: 3
  m_HaloTexture: {fileID: 0}
  m_SpotCookie: {fileID: 10001, guid: 0000000000000000e000000000000000, type: 0}
  m_DefaultReflectionMode: 0
  m_DefaultReflectionResolution: 128
  m_ReflectionBounces: 1
  m_ReflectionIntensity: 1
  m_CustomReflection: {fileID: 0}
  m_Sun: {fileID: 0}
  m_IndirectSpecularColor: {r: 0, g: 0, b: 0, a: 1}
  m_UseRadianceAmbientProbe: 0
--- !u!157 &3
LightmapSettings:
  m_ObjectHideFlags: 0
  serializedVersion: 12
  m_GIWorkflowMode: 1
  m_GISettings:
    serializedVersion: 2
    m_BounceScale: 1
    m_IndirectOutputScale: 1
    m_AlbedoBoost: 1
    m_EnvironmentLightingMode: 0
    m_EnableBakedLightmaps: 0
    m_EnableRealtimeLightmaps: 0
  m_LightmapEditorSettings:
    serializedVersion: 12
    m_Resolution: 2
    m_BakeResolution: 40
    m_AtlasSize: 1024
    m_AO: 0
    m_AOMaxDistance: 1
    m_CompAOExponent: 1
    m_CompAOExponentDirect: 0
    m_ExtractAmbientOcclusion: 0
    m_Padding: 2
    m_LightmapParameters: {fileID: 0}
    m_LightmapsBakeMode: 1
    m_TextureCompression: 1
    m_FinalGather: 0
    m_FinalGatherFiltering: 1
    m_FinalGatherRayCount: 256
    m_ReflectionCompression: 2
    m_MixedBakeMode: 2
    m_BakeBackend: 1
    m_PVRSampling: 1
    m_PVRDirectSampleCount: 32
    m_PVRSampleCount: 512
    m_PVRBounces: 2
    m_PVREnvironmentSampleCount: 256
    m_PVREnvironmentReferencePointCount: 2048
    m_PVRFilteringMode: 1
    m_PVRDenoiserTypeDirect: 1
    m_PVRDenoiserTypeIndirect: 1
    m_PVRDenoiserTypeAO: 1
    m_PVRFilterTypeDirect: 0
    m_PVRFilterTypeIndirect: 0
    m_PVRFilterTypeAO: 0
    m_PVREnvironmentMIS: 1
    m_PVRCulling: 1
    m_PVRFilteringGaussRadiusDirect: 1
    m_PVRFilteringGaussRadiusIndirect: 5
    m_PVRFilteringGaussRadiusAO: 2
    m_PVRFilteringAtrousPositionSigmaDirect: 0.5
    m_PVRFilteringAtrousPositionSigmaIndirect: 2
    m_PVRFilteringAtrousPositionSigmaAO: 1
    m_ExportTrainingData: 0
    m_TrainingDataDestination: TrainingData
    m_LightProbeSampleCountMultiplier: 4
  m_LightingDataAsset: {fileID: 0}
  m_LightingSettings: {fileID: 0}
--- !u!196 &4
NavMeshSettings:
  serializedVersion: 2
  m_ObjectHideFlags: 0
  m_BuildSettings:
    serializedVersion: 2
    agentTypeID: 0
    agentRadius: 0.5
    agentHeight: 2
    agentSlope: 45
    agentClimb: 0.4
    ledgeDropHeight: 0
    maxJumpAcrossDistance: 0
    minRegionArea: 2
    manualCellSize: 0
    cellSize: 0.16666667
    manualTileSize: 0
    tileSize: 256
    accuratePlacement: 0
    maxJobWorkers: 0
    preserveTilesOutsideBounds: 0
    debug:
      m_Flags: 0
  m_NavMeshData: {fileID: 0}
--- !u!1001 &166976938
PrefabInstance:
  m_ObjectHideFlags: 0
  serializedVersion: 2
  m_Modification:
    m_TransformParent: {fileID: 0}
    m_Modifications:
    - target: {fileID: 419256642125230918, guid: d48a1ffeb945f554d9036a9881f9264b, type: 3}
      propertyPath: m_AnchorMin.x
      value: 0
      objectReference: {fileID: 0}
    - target: {fileID: 419256642125230918, guid: d48a1ffeb945f554d9036a9881f9264b, type: 3}
      propertyPath: m_AnchorMax.x
      value: 0
      objectReference: {fileID: 0}
    - target: {fileID: 419256642125230918, guid: d48a1ffeb945f554d9036a9881f9264b, type: 3}
      propertyPath: m_AnchorMax.y
      value: 0
      objectReference: {fileID: 0}
    - target: {fileID: 859560545290146814, guid: d48a1ffeb945f554d9036a9881f9264b, type: 3}
      propertyPath: m_AnchorMin.y
      value: 1
      objectReference: {fileID: 0}
    - target: {fileID: 859560545290146814, guid: d48a1ffeb945f554d9036a9881f9264b, type: 3}
      propertyPath: m_AnchorMax.y
      value: 1
      objectReference: {fileID: 0}
    - target: {fileID: 859560545290146814, guid: d48a1ffeb945f554d9036a9881f9264b, type: 3}
      propertyPath: m_AnchoredPosition.x
      value: 82
      objectReference: {fileID: 0}
    - target: {fileID: 859560545290146814, guid: d48a1ffeb945f554d9036a9881f9264b, type: 3}
      propertyPath: m_AnchoredPosition.y
      value: -42.439087
      objectReference: {fileID: 0}
    - target: {fileID: 859560545290146814, guid: d48a1ffeb945f554d9036a9881f9264b, type: 3}
      propertyPath: m_SizeDelta.x
      value: 444
      objectReference: {fileID: 0}
    - target: {fileID: 859560545290146814, guid: d48a1ffeb945f554d9036a9881f9264b, type: 3}
      propertyPath: m_SizeDelta.y
      value: 136
      objectReference: {fileID: 0}
    - target: {fileID: 926369835503501148, guid: d48a1ffeb945f554d9036a9881f9264b, type: 3}
      propertyPath: m_Name
      value: Player and HUD
      objectReference: {fileID: 0}
    - target: {fileID: 926369835503501155, guid: d48a1ffeb945f554d9036a9881f9264b, type: 3}
      propertyPath: m_LocalPosition.x
      value: 0
      objectReference: {fileID: 0}
    - target: {fileID: 926369835503501155, guid: d48a1ffeb945f554d9036a9881f9264b, type: 3}
      propertyPath: m_LocalPosition.y
      value: 0
      objectReference: {fileID: 0}
    - target: {fileID: 926369835503501155, guid: d48a1ffeb945f554d9036a9881f9264b, type: 3}
      propertyPath: m_LocalPosition.z
      value: 0
      objectReference: {fileID: 0}
    - target: {fileID: 926369835503501155, guid: d48a1ffeb945f554d9036a9881f9264b, type: 3}
      propertyPath: m_LocalRotation.x
      value: 0
      objectReference: {fileID: 0}
    - target: {fileID: 926369835503501155, guid: d48a1ffeb945f554d9036a9881f9264b, type: 3}
      propertyPath: m_LocalRotation.y
      value: 0
      objectReference: {fileID: 0}
    - target: {fileID: 926369835503501155, guid: d48a1ffeb945f554d9036a9881f9264b, type: 3}
      propertyPath: m_LocalRotation.z
      value: 0
      objectReference: {fileID: 0}
    - target: {fileID: 926369835503501155, guid: d48a1ffeb945f554d9036a9881f9264b, type: 3}
      propertyPath: m_LocalRotation.w
      value: 1
      objectReference: {fileID: 0}
    - target: {fileID: 926369835503501155, guid: d48a1ffeb945f554d9036a9881f9264b, type: 3}
      propertyPath: m_RootOrder
      value: 1
      objectReference: {fileID: 0}
    - target: {fileID: 926369835503501155, guid: d48a1ffeb945f554d9036a9881f9264b, type: 3}
      propertyPath: m_LocalEulerAnglesHint.x
      value: 0
      objectReference: {fileID: 0}
    - target: {fileID: 926369835503501155, guid: d48a1ffeb945f554d9036a9881f9264b, type: 3}
      propertyPath: m_LocalEulerAnglesHint.y
      value: 0
      objectReference: {fileID: 0}
    - target: {fileID: 926369835503501155, guid: d48a1ffeb945f554d9036a9881f9264b, type: 3}
      propertyPath: m_LocalEulerAnglesHint.z
      value: 0
      objectReference: {fileID: 0}
    - target: {fileID: 1134542819419044154, guid: d48a1ffeb945f554d9036a9881f9264b, type: 3}
      propertyPath: m_OnClick.m_PersistentCalls.m_Calls.Array.data[0].m_Arguments.m_StringArgument
      value: Tutorial 2
      objectReference: {fileID: 0}
    - target: {fileID: 1134542819470083668, guid: d48a1ffeb945f554d9036a9881f9264b, type: 3}
      propertyPath: m_IsActive
      value: 0
      objectReference: {fileID: 0}
    - target: {fileID: 1713725939319547786, guid: d48a1ffeb945f554d9036a9881f9264b, type: 3}
      propertyPath: m_AnchorMin.y
      value: 1
      objectReference: {fileID: 0}
    - target: {fileID: 1713725939319547786, guid: d48a1ffeb945f554d9036a9881f9264b, type: 3}
      propertyPath: m_AnchorMax.y
      value: 1
      objectReference: {fileID: 0}
    - target: {fileID: 1713725939319547786, guid: d48a1ffeb945f554d9036a9881f9264b, type: 3}
      propertyPath: m_AnchoredPosition.x
      value: 82
      objectReference: {fileID: 0}
    - target: {fileID: 1713725939319547786, guid: d48a1ffeb945f554d9036a9881f9264b, type: 3}
      propertyPath: m_AnchoredPosition.y
      value: -266.4391
      objectReference: {fileID: 0}
    - target: {fileID: 1713725939319547786, guid: d48a1ffeb945f554d9036a9881f9264b, type: 3}
      propertyPath: m_SizeDelta.x
      value: 444
      objectReference: {fileID: 0}
    - target: {fileID: 1713725939319547786, guid: d48a1ffeb945f554d9036a9881f9264b, type: 3}
      propertyPath: m_SizeDelta.y
      value: 136
      objectReference: {fileID: 0}
    - target: {fileID: 3582125224558232380, guid: d48a1ffeb945f554d9036a9881f9264b, type: 3}
      propertyPath: m_AnchorMin.y
      value: 1
      objectReference: {fileID: 0}
    - target: {fileID: 3582125224558232380, guid: d48a1ffeb945f554d9036a9881f9264b, type: 3}
      propertyPath: m_AnchorMax.y
      value: 1
      objectReference: {fileID: 0}
    - target: {fileID: 3582125224558232380, guid: d48a1ffeb945f554d9036a9881f9264b, type: 3}
      propertyPath: m_AnchoredPosition.x
      value: 82
      objectReference: {fileID: 0}
    - target: {fileID: 3582125224558232380, guid: d48a1ffeb945f554d9036a9881f9264b, type: 3}
      propertyPath: m_AnchoredPosition.y
      value: -546.4391
      objectReference: {fileID: 0}
    - target: {fileID: 3582125224558232380, guid: d48a1ffeb945f554d9036a9881f9264b, type: 3}
      propertyPath: m_SizeDelta.x
      value: 444
      objectReference: {fileID: 0}
    - target: {fileID: 3582125224558232380, guid: d48a1ffeb945f554d9036a9881f9264b, type: 3}
      propertyPath: m_SizeDelta.y
      value: 136
      objectReference: {fileID: 0}
    - target: {fileID: 3720992947378280693, guid: d48a1ffeb945f554d9036a9881f9264b, type: 3}
      propertyPath: m_IsActive
      value: 0
      objectReference: {fileID: 0}
    - target: {fileID: 3823699415723513921, guid: d48a1ffeb945f554d9036a9881f9264b, type: 3}
      propertyPath: m_AnchorMin.y
      value: 1
      objectReference: {fileID: 0}
    - target: {fileID: 3823699415723513921, guid: d48a1ffeb945f554d9036a9881f9264b, type: 3}
      propertyPath: m_AnchorMax.y
      value: 1
      objectReference: {fileID: 0}
    - target: {fileID: 3823699415723513921, guid: d48a1ffeb945f554d9036a9881f9264b, type: 3}
      propertyPath: m_AnchoredPosition.x
      value: 82
      objectReference: {fileID: 0}
    - target: {fileID: 3823699415723513921, guid: d48a1ffeb945f554d9036a9881f9264b, type: 3}
      propertyPath: m_AnchoredPosition.y
      value: -154.43909
      objectReference: {fileID: 0}
    - target: {fileID: 3823699415723513921, guid: d48a1ffeb945f554d9036a9881f9264b, type: 3}
      propertyPath: m_SizeDelta.x
      value: 444
      objectReference: {fileID: 0}
    - target: {fileID: 3823699415723513921, guid: d48a1ffeb945f554d9036a9881f9264b, type: 3}
      propertyPath: m_SizeDelta.y
      value: 136
      objectReference: {fileID: 0}
    - target: {fileID: 4616433718785446872, guid: d48a1ffeb945f554d9036a9881f9264b, type: 3}
      propertyPath: m_AnchorMin.y
      value: 1
      objectReference: {fileID: 0}
    - target: {fileID: 4616433718785446872, guid: d48a1ffeb945f554d9036a9881f9264b, type: 3}
      propertyPath: m_AnchorMax.y
      value: 1
      objectReference: {fileID: 0}
    - target: {fileID: 4616433718785446872, guid: d48a1ffeb945f554d9036a9881f9264b, type: 3}
      propertyPath: m_AnchoredPosition.x
      value: 82
      objectReference: {fileID: 0}
    - target: {fileID: 4616433718785446872, guid: d48a1ffeb945f554d9036a9881f9264b, type: 3}
      propertyPath: m_AnchoredPosition.y
      value: -210.43909
      objectReference: {fileID: 0}
    - target: {fileID: 4616433718785446872, guid: d48a1ffeb945f554d9036a9881f9264b, type: 3}
      propertyPath: m_SizeDelta.x
      value: 444
      objectReference: {fileID: 0}
    - target: {fileID: 4616433718785446872, guid: d48a1ffeb945f554d9036a9881f9264b, type: 3}
      propertyPath: m_SizeDelta.y
      value: 136
      objectReference: {fileID: 0}
    - target: {fileID: 4633662846299103477, guid: d48a1ffeb945f554d9036a9881f9264b, type: 3}
      propertyPath: m_AnchorMin.y
      value: 1
      objectReference: {fileID: 0}
    - target: {fileID: 4633662846299103477, guid: d48a1ffeb945f554d9036a9881f9264b, type: 3}
      propertyPath: m_AnchorMax.y
      value: 1
      objectReference: {fileID: 0}
    - target: {fileID: 4633662846299103477, guid: d48a1ffeb945f554d9036a9881f9264b, type: 3}
      propertyPath: m_AnchoredPosition.x
      value: 82
      objectReference: {fileID: 0}
    - target: {fileID: 4633662846299103477, guid: d48a1ffeb945f554d9036a9881f9264b, type: 3}
      propertyPath: m_AnchoredPosition.y
      value: -98.43909
      objectReference: {fileID: 0}
    - target: {fileID: 4633662846299103477, guid: d48a1ffeb945f554d9036a9881f9264b, type: 3}
      propertyPath: m_SizeDelta.x
      value: 444
      objectReference: {fileID: 0}
    - target: {fileID: 4633662846299103477, guid: d48a1ffeb945f554d9036a9881f9264b, type: 3}
      propertyPath: m_SizeDelta.y
      value: 136
      objectReference: {fileID: 0}
    - target: {fileID: 5233088911671233696, guid: d48a1ffeb945f554d9036a9881f9264b, type: 3}
      propertyPath: m_AnchorMin.y
      value: 1
      objectReference: {fileID: 0}
    - target: {fileID: 5233088911671233696, guid: d48a1ffeb945f554d9036a9881f9264b, type: 3}
      propertyPath: m_AnchorMax.y
      value: 1
      objectReference: {fileID: 0}
    - target: {fileID: 5233088911671233696, guid: d48a1ffeb945f554d9036a9881f9264b, type: 3}
      propertyPath: m_AnchoredPosition.x
      value: 82
      objectReference: {fileID: 0}
    - target: {fileID: 5233088911671233696, guid: d48a1ffeb945f554d9036a9881f9264b, type: 3}
      propertyPath: m_AnchoredPosition.y
      value: -490.4391
      objectReference: {fileID: 0}
    - target: {fileID: 5233088911671233696, guid: d48a1ffeb945f554d9036a9881f9264b, type: 3}
      propertyPath: m_SizeDelta.x
      value: 444
      objectReference: {fileID: 0}
    - target: {fileID: 5233088911671233696, guid: d48a1ffeb945f554d9036a9881f9264b, type: 3}
      propertyPath: m_SizeDelta.y
      value: 136
      objectReference: {fileID: 0}
    - target: {fileID: 5409619555367333688, guid: d48a1ffeb945f554d9036a9881f9264b, type: 3}
      propertyPath: m_AnchorMin.y
      value: 1
      objectReference: {fileID: 0}
    - target: {fileID: 5409619555367333688, guid: d48a1ffeb945f554d9036a9881f9264b, type: 3}
      propertyPath: m_AnchorMax.y
      value: 1
      objectReference: {fileID: 0}
    - target: {fileID: 5409619555367333688, guid: d48a1ffeb945f554d9036a9881f9264b, type: 3}
      propertyPath: m_AnchoredPosition.x
      value: 82
      objectReference: {fileID: 0}
    - target: {fileID: 5409619555367333688, guid: d48a1ffeb945f554d9036a9881f9264b, type: 3}
      propertyPath: m_AnchoredPosition.y
      value: 13.560913
      objectReference: {fileID: 0}
    - target: {fileID: 5409619555367333688, guid: d48a1ffeb945f554d9036a9881f9264b, type: 3}
      propertyPath: m_SizeDelta.x
      value: 444
      objectReference: {fileID: 0}
    - target: {fileID: 5409619555367333688, guid: d48a1ffeb945f554d9036a9881f9264b, type: 3}
      propertyPath: m_SizeDelta.y
      value: 136
      objectReference: {fileID: 0}
    - target: {fileID: 5428867834077328080, guid: d48a1ffeb945f554d9036a9881f9264b, type: 3}
      propertyPath: m_AnchorMin.y
      value: 1
      objectReference: {fileID: 0}
    - target: {fileID: 5428867834077328080, guid: d48a1ffeb945f554d9036a9881f9264b, type: 3}
      propertyPath: m_AnchorMax.y
      value: 1
      objectReference: {fileID: 0}
    - target: {fileID: 5428867834077328080, guid: d48a1ffeb945f554d9036a9881f9264b, type: 3}
      propertyPath: m_AnchoredPosition.x
      value: 82
      objectReference: {fileID: 0}
    - target: {fileID: 5428867834077328080, guid: d48a1ffeb945f554d9036a9881f9264b, type: 3}
      propertyPath: m_AnchoredPosition.y
      value: -378.4391
      objectReference: {fileID: 0}
    - target: {fileID: 5428867834077328080, guid: d48a1ffeb945f554d9036a9881f9264b, type: 3}
      propertyPath: m_SizeDelta.x
      value: 444
      objectReference: {fileID: 0}
    - target: {fileID: 5428867834077328080, guid: d48a1ffeb945f554d9036a9881f9264b, type: 3}
      propertyPath: m_SizeDelta.y
      value: 136
      objectReference: {fileID: 0}
    - target: {fileID: 6320399077864359367, guid: d48a1ffeb945f554d9036a9881f9264b, type: 3}
      propertyPath: m_AnchorMin.y
      value: 1
      objectReference: {fileID: 0}
    - target: {fileID: 6320399077864359367, guid: d48a1ffeb945f554d9036a9881f9264b, type: 3}
      propertyPath: m_AnchorMax.y
      value: 1
      objectReference: {fileID: 0}
    - target: {fileID: 6320399077864359367, guid: d48a1ffeb945f554d9036a9881f9264b, type: 3}
      propertyPath: m_AnchoredPosition.x
      value: 82
      objectReference: {fileID: 0}
    - target: {fileID: 6320399077864359367, guid: d48a1ffeb945f554d9036a9881f9264b, type: 3}
      propertyPath: m_AnchoredPosition.y
      value: -322.4391
      objectReference: {fileID: 0}
    - target: {fileID: 6320399077864359367, guid: d48a1ffeb945f554d9036a9881f9264b, type: 3}
      propertyPath: m_SizeDelta.x
      value: 444
      objectReference: {fileID: 0}
    - target: {fileID: 6320399077864359367, guid: d48a1ffeb945f554d9036a9881f9264b, type: 3}
      propertyPath: m_SizeDelta.y
      value: 136
      objectReference: {fileID: 0}
    - target: {fileID: 6424126543691968838, guid: d48a1ffeb945f554d9036a9881f9264b, type: 3}
      propertyPath: m_RootOrder
      value: 8
      objectReference: {fileID: 0}
    - target: {fileID: 6971855378579600350, guid: d48a1ffeb945f554d9036a9881f9264b, type: 3}
      propertyPath: m_AnchorMin.y
      value: 1
      objectReference: {fileID: 0}
    - target: {fileID: 6971855378579600350, guid: d48a1ffeb945f554d9036a9881f9264b, type: 3}
      propertyPath: m_AnchorMax.y
      value: 1
      objectReference: {fileID: 0}
    - target: {fileID: 6971855378579600350, guid: d48a1ffeb945f554d9036a9881f9264b, type: 3}
      propertyPath: m_AnchoredPosition.x
      value: 82
      objectReference: {fileID: 0}
    - target: {fileID: 6971855378579600350, guid: d48a1ffeb945f554d9036a9881f9264b, type: 3}
      propertyPath: m_AnchoredPosition.y
      value: -434.4391
      objectReference: {fileID: 0}
    - target: {fileID: 6971855378579600350, guid: d48a1ffeb945f554d9036a9881f9264b, type: 3}
      propertyPath: m_SizeDelta.x
      value: 444
      objectReference: {fileID: 0}
    - target: {fileID: 6971855378579600350, guid: d48a1ffeb945f554d9036a9881f9264b, type: 3}
      propertyPath: m_SizeDelta.y
      value: 136
      objectReference: {fileID: 0}
    - target: {fileID: 7084966938259361006, guid: d48a1ffeb945f554d9036a9881f9264b, type: 3}
      propertyPath: m_AnchorMin.x
      value: 0
      objectReference: {fileID: 0}
    - target: {fileID: 7084966938259361006, guid: d48a1ffeb945f554d9036a9881f9264b, type: 3}
      propertyPath: m_AnchorMax.x
      value: 0
      objectReference: {fileID: 0}
    - target: {fileID: 7084966938259361006, guid: d48a1ffeb945f554d9036a9881f9264b, type: 3}
      propertyPath: m_AnchorMax.y
      value: 0
      objectReference: {fileID: 0}
    - target: {fileID: 7763373097037631488, guid: d48a1ffeb945f554d9036a9881f9264b, type: 3}
      propertyPath: ammoLeft
      value: 0
      objectReference: {fileID: 0}
    - target: {fileID: 7763373097037631493, guid: d48a1ffeb945f554d9036a9881f9264b, type: 3}
      propertyPath: m_IsActive
      value: 0
      objectReference: {fileID: 0}
    - target: {fileID: 7763373097931361872, guid: d48a1ffeb945f554d9036a9881f9264b, type: 3}
      propertyPath: m_LocalPosition.x
      value: -2.49
      objectReference: {fileID: 0}
    - target: {fileID: 7763373097931361872, guid: d48a1ffeb945f554d9036a9881f9264b, type: 3}
      propertyPath: m_LocalPosition.y
      value: -0.05
      objectReference: {fileID: 0}
    - target: {fileID: 7763373097931361874, guid: d48a1ffeb945f554d9036a9881f9264b, type: 3}
      propertyPath: m_Enabled
      value: 0
      objectReference: {fileID: 0}
    m_RemovedComponents: []
  m_SourcePrefab: {fileID: 100100000, guid: d48a1ffeb945f554d9036a9881f9264b, type: 3}
--- !u!1001 &626034589
PrefabInstance:
  m_ObjectHideFlags: 0
  serializedVersion: 2
  m_Modification:
    m_TransformParent: {fileID: 0}
    m_Modifications:
    - target: {fileID: 3668472079190090001, guid: c3502f53a45c39a479b370f9236da395, type: 3}
      propertyPath: m_Name
      value: Background
      objectReference: {fileID: 0}
    - target: {fileID: 3668472079190090014, guid: c3502f53a45c39a479b370f9236da395, type: 3}
      propertyPath: m_LocalPosition.x
      value: 0
      objectReference: {fileID: 0}
    - target: {fileID: 3668472079190090014, guid: c3502f53a45c39a479b370f9236da395, type: 3}
      propertyPath: m_LocalPosition.y
      value: 0
      objectReference: {fileID: 0}
    - target: {fileID: 3668472079190090014, guid: c3502f53a45c39a479b370f9236da395, type: 3}
      propertyPath: m_LocalPosition.z
      value: 0
      objectReference: {fileID: 0}
    - target: {fileID: 3668472079190090014, guid: c3502f53a45c39a479b370f9236da395, type: 3}
      propertyPath: m_LocalRotation.x
      value: -0
      objectReference: {fileID: 0}
    - target: {fileID: 3668472079190090014, guid: c3502f53a45c39a479b370f9236da395, type: 3}
      propertyPath: m_LocalRotation.y
      value: -0
      objectReference: {fileID: 0}
    - target: {fileID: 3668472079190090014, guid: c3502f53a45c39a479b370f9236da395, type: 3}
      propertyPath: m_LocalRotation.z
      value: -0
      objectReference: {fileID: 0}
    - target: {fileID: 3668472079190090014, guid: c3502f53a45c39a479b370f9236da395, type: 3}
      propertyPath: m_LocalRotation.w
      value: 1
      objectReference: {fileID: 0}
    - target: {fileID: 3668472079190090014, guid: c3502f53a45c39a479b370f9236da395, type: 3}
      propertyPath: m_RootOrder
      value: 2
      objectReference: {fileID: 0}
    - target: {fileID: 3668472079190090014, guid: c3502f53a45c39a479b370f9236da395, type: 3}
      propertyPath: m_LocalEulerAnglesHint.x
      value: 0
      objectReference: {fileID: 0}
    - target: {fileID: 3668472079190090014, guid: c3502f53a45c39a479b370f9236da395, type: 3}
      propertyPath: m_LocalEulerAnglesHint.y
      value: 0
      objectReference: {fileID: 0}
    - target: {fileID: 3668472079190090014, guid: c3502f53a45c39a479b370f9236da395, type: 3}
      propertyPath: m_LocalEulerAnglesHint.z
      value: 0
      objectReference: {fileID: 0}
    m_RemovedComponents: []
  m_SourcePrefab: {fileID: 100100000, guid: c3502f53a45c39a479b370f9236da395, type: 3}
--- !u!1 &891894313
GameObject:
  m_ObjectHideFlags: 0
  m_CorrespondingSourceObject: {fileID: 0}
  m_PrefabInstance: {fileID: 0}
  m_PrefabAsset: {fileID: 0}
  serializedVersion: 6
  m_Component:
  - component: {fileID: 891894314}
  - component: {fileID: 891894316}
  - component: {fileID: 891894315}
  m_Layer: 5
  m_Name: Text
  m_TagString: Untagged
  m_Icon: {fileID: 0}
  m_NavMeshLayer: 0
  m_StaticEditorFlags: 0
  m_IsActive: 1
--- !u!224 &891894314
RectTransform:
  m_ObjectHideFlags: 0
  m_CorrespondingSourceObject: {fileID: 0}
  m_PrefabInstance: {fileID: 0}
  m_PrefabAsset: {fileID: 0}
  m_GameObject: {fileID: 891894313}
  m_LocalRotation: {x: 0, y: 0, z: 0, w: 1}
  m_LocalPosition: {x: 0, y: 0, z: 0}
  m_LocalScale: {x: 1, y: 1, z: 1}
  m_Children: []
  m_Father: {fileID: 2035144839}
  m_RootOrder: 7
  m_LocalEulerAnglesHint: {x: 0, y: 0, z: 0}
  m_AnchorMin: {x: 0.5, y: 0.5}
  m_AnchorMax: {x: 0.5, y: 0.5}
  m_AnchoredPosition: {x: -0.000015259, y: -360.16}
  m_SizeDelta: {x: 1532.3369, y: 219.19035}
  m_Pivot: {x: 0.5, y: 0.5}
--- !u!114 &891894315
MonoBehaviour:
  m_ObjectHideFlags: 0
  m_CorrespondingSourceObject: {fileID: 0}
  m_PrefabInstance: {fileID: 0}
  m_PrefabAsset: {fileID: 0}
  m_GameObject: {fileID: 891894313}
  m_Enabled: 1
  m_EditorHideFlags: 0
  m_Script: {fileID: 11500000, guid: 5f7201a12d95ffc409449d95f23cf332, type: 3}
  m_Name: 
  m_EditorClassIdentifier: 
  m_Material: {fileID: 0}
  m_Color: {r: 1, g: 1, b: 1, a: 1}
  m_RaycastTarget: 1
  m_RaycastPadding: {x: 0, y: 0, z: 0, w: 0}
  m_Maskable: 1
  m_OnCullStateChanged:
    m_PersistentCalls:
      m_Calls: []
  m_FontData:
    m_Font: {fileID: 10102, guid: 0000000000000000e000000000000000, type: 0}
    m_FontSize: 72
    m_FontStyle: 0
    m_BestFit: 0
    m_MinSize: 7
    m_MaxSize: 72
    m_Alignment: 1
    m_AlignByGeometry: 0
    m_RichText: 1
    m_HorizontalOverflow: 0
    m_VerticalOverflow: 0
    m_LineSpacing: 1
  m_Text: Use "W, A, S and D" or the arrow keys to move
--- !u!222 &891894316
CanvasRenderer:
  m_ObjectHideFlags: 0
  m_CorrespondingSourceObject: {fileID: 0}
  m_PrefabInstance: {fileID: 0}
  m_PrefabAsset: {fileID: 0}
  m_GameObject: {fileID: 891894313}
  m_CullTransparentMesh: 0
--- !u!1001 &1091288350
PrefabInstance:
  m_ObjectHideFlags: 0
  serializedVersion: 2
  m_Modification:
    m_TransformParent: {fileID: 0}
    m_Modifications:
    - target: {fileID: 3880993385314744888, guid: fec2397ce3929cf4e880546c035ac818, type: 3}
      propertyPath: m_LocalPosition.x
      value: 9.86
      objectReference: {fileID: 0}
    - target: {fileID: 3880993385314744888, guid: fec2397ce3929cf4e880546c035ac818, type: 3}
      propertyPath: m_LocalPosition.y
      value: -0.341
      objectReference: {fileID: 0}
    - target: {fileID: 3880993385314744888, guid: fec2397ce3929cf4e880546c035ac818, type: 3}
      propertyPath: m_LocalPosition.z
      value: 0
      objectReference: {fileID: 0}
    - target: {fileID: 3880993385314744888, guid: fec2397ce3929cf4e880546c035ac818, type: 3}
      propertyPath: m_LocalRotation.x
      value: 0
      objectReference: {fileID: 0}
    - target: {fileID: 3880993385314744888, guid: fec2397ce3929cf4e880546c035ac818, type: 3}
      propertyPath: m_LocalRotation.y
      value: 0
      objectReference: {fileID: 0}
    - target: {fileID: 3880993385314744888, guid: fec2397ce3929cf4e880546c035ac818, type: 3}
      propertyPath: m_LocalRotation.z
      value: 0
      objectReference: {fileID: 0}
    - target: {fileID: 3880993385314744888, guid: fec2397ce3929cf4e880546c035ac818, type: 3}
      propertyPath: m_LocalRotation.w
      value: 1
      objectReference: {fileID: 0}
    - target: {fileID: 3880993385314744888, guid: fec2397ce3929cf4e880546c035ac818, type: 3}
      propertyPath: m_RootOrder
      value: 6
      objectReference: {fileID: 0}
    - target: {fileID: 3880993385314744888, guid: fec2397ce3929cf4e880546c035ac818, type: 3}
      propertyPath: m_LocalEulerAnglesHint.x
      value: 0
      objectReference: {fileID: 0}
    - target: {fileID: 3880993385314744888, guid: fec2397ce3929cf4e880546c035ac818, type: 3}
      propertyPath: m_LocalEulerAnglesHint.y
      value: 0
      objectReference: {fileID: 0}
    - target: {fileID: 3880993385314744888, guid: fec2397ce3929cf4e880546c035ac818, type: 3}
      propertyPath: m_LocalEulerAnglesHint.z
      value: 0
      objectReference: {fileID: 0}
    - target: {fileID: 3880993385314744888, guid: fec2397ce3929cf4e880546c035ac818, type: 3}
      propertyPath: m_LocalScale.y
      value: 8.229466
      objectReference: {fileID: 0}
    - target: {fileID: 3880993385314744890, guid: fec2397ce3929cf4e880546c035ac818, type: 3}
      propertyPath: m_Name
      value: Asteroid (13)
      objectReference: {fileID: 0}
    m_RemovedComponents: []
  m_SourcePrefab: {fileID: 100100000, guid: fec2397ce3929cf4e880546c035ac818, type: 3}
--- !u!1001 &1343256454
PrefabInstance:
  m_ObjectHideFlags: 0
  serializedVersion: 2
  m_Modification:
    m_TransformParent: {fileID: 0}
    m_Modifications:
    - target: {fileID: 3880993385314744888, guid: fec2397ce3929cf4e880546c035ac818, type: 3}
      propertyPath: m_LocalPosition.x
      value: -0.04
      objectReference: {fileID: 0}
    - target: {fileID: 3880993385314744888, guid: fec2397ce3929cf4e880546c035ac818, type: 3}
      propertyPath: m_LocalPosition.y
      value: 5.84
      objectReference: {fileID: 0}
    - target: {fileID: 3880993385314744888, guid: fec2397ce3929cf4e880546c035ac818, type: 3}
      propertyPath: m_LocalPosition.z
      value: 0
      objectReference: {fileID: 0}
    - target: {fileID: 3880993385314744888, guid: fec2397ce3929cf4e880546c035ac818, type: 3}
      propertyPath: m_LocalRotation.x
      value: 0
      objectReference: {fileID: 0}
    - target: {fileID: 3880993385314744888, guid: fec2397ce3929cf4e880546c035ac818, type: 3}
      propertyPath: m_LocalRotation.y
      value: 0
      objectReference: {fileID: 0}
    - target: {fileID: 3880993385314744888, guid: fec2397ce3929cf4e880546c035ac818, type: 3}
      propertyPath: m_LocalRotation.z
      value: 0
      objectReference: {fileID: 0}
    - target: {fileID: 3880993385314744888, guid: fec2397ce3929cf4e880546c035ac818, type: 3}
      propertyPath: m_LocalRotation.w
      value: 1
      objectReference: {fileID: 0}
    - target: {fileID: 3880993385314744888, guid: fec2397ce3929cf4e880546c035ac818, type: 3}
      propertyPath: m_RootOrder
      value: 3
      objectReference: {fileID: 0}
    - target: {fileID: 3880993385314744888, guid: fec2397ce3929cf4e880546c035ac818, type: 3}
      propertyPath: m_LocalEulerAnglesHint.x
      value: 0
      objectReference: {fileID: 0}
    - target: {fileID: 3880993385314744888, guid: fec2397ce3929cf4e880546c035ac818, type: 3}
      propertyPath: m_LocalEulerAnglesHint.y
      value: 0
      objectReference: {fileID: 0}
    - target: {fileID: 3880993385314744888, guid: fec2397ce3929cf4e880546c035ac818, type: 3}
      propertyPath: m_LocalEulerAnglesHint.z
      value: 0
      objectReference: {fileID: 0}
    - target: {fileID: 3880993385314744888, guid: fec2397ce3929cf4e880546c035ac818, type: 3}
      propertyPath: m_LocalScale.x
      value: 9.903171
      objectReference: {fileID: 0}
    - target: {fileID: 3880993385314744890, guid: fec2397ce3929cf4e880546c035ac818, type: 3}
      propertyPath: m_Name
      value: Asteroid (11)
      objectReference: {fileID: 0}
    m_RemovedComponents: []
  m_SourcePrefab: {fileID: 100100000, guid: fec2397ce3929cf4e880546c035ac818, type: 3}
--- !u!1001 &1470961947
PrefabInstance:
  m_ObjectHideFlags: 0
  serializedVersion: 2
  m_Modification:
    m_TransformParent: {fileID: 0}
    m_Modifications:
    - target: {fileID: 3880993385314744888, guid: fec2397ce3929cf4e880546c035ac818, type: 3}
      propertyPath: m_LocalPosition.x
      value: -0.01
      objectReference: {fileID: 0}
    - target: {fileID: 3880993385314744888, guid: fec2397ce3929cf4e880546c035ac818, type: 3}
      propertyPath: m_LocalPosition.y
      value: -5.85
      objectReference: {fileID: 0}
    - target: {fileID: 3880993385314744888, guid: fec2397ce3929cf4e880546c035ac818, type: 3}
      propertyPath: m_LocalPosition.z
      value: 0
      objectReference: {fileID: 0}
    - target: {fileID: 3880993385314744888, guid: fec2397ce3929cf4e880546c035ac818, type: 3}
      propertyPath: m_LocalRotation.x
      value: 0
      objectReference: {fileID: 0}
    - target: {fileID: 3880993385314744888, guid: fec2397ce3929cf4e880546c035ac818, type: 3}
      propertyPath: m_LocalRotation.y
      value: 0
      objectReference: {fileID: 0}
    - target: {fileID: 3880993385314744888, guid: fec2397ce3929cf4e880546c035ac818, type: 3}
      propertyPath: m_LocalRotation.z
      value: 0
      objectReference: {fileID: 0}
    - target: {fileID: 3880993385314744888, guid: fec2397ce3929cf4e880546c035ac818, type: 3}
      propertyPath: m_LocalRotation.w
      value: 1
      objectReference: {fileID: 0}
    - target: {fileID: 3880993385314744888, guid: fec2397ce3929cf4e880546c035ac818, type: 3}
      propertyPath: m_RootOrder
      value: 4
      objectReference: {fileID: 0}
    - target: {fileID: 3880993385314744888, guid: fec2397ce3929cf4e880546c035ac818, type: 3}
      propertyPath: m_LocalEulerAnglesHint.x
      value: 0
      objectReference: {fileID: 0}
    - target: {fileID: 3880993385314744888, guid: fec2397ce3929cf4e880546c035ac818, type: 3}
      propertyPath: m_LocalEulerAnglesHint.y
      value: 0
      objectReference: {fileID: 0}
    - target: {fileID: 3880993385314744888, guid: fec2397ce3929cf4e880546c035ac818, type: 3}
      propertyPath: m_LocalEulerAnglesHint.z
      value: 0
      objectReference: {fileID: 0}
    - target: {fileID: 3880993385314744888, guid: fec2397ce3929cf4e880546c035ac818, type: 3}
      propertyPath: m_LocalScale.x
      value: 9.903171
      objectReference: {fileID: 0}
    - target: {fileID: 3880993385314744890, guid: fec2397ce3929cf4e880546c035ac818, type: 3}
      propertyPath: m_Name
      value: Asteroid (12)
      objectReference: {fileID: 0}
    m_RemovedComponents: []
  m_SourcePrefab: {fileID: 100100000, guid: fec2397ce3929cf4e880546c035ac818, type: 3}
--- !u!1001 &1611780670
PrefabInstance:
  m_ObjectHideFlags: 0
  serializedVersion: 2
  m_Modification:
    m_TransformParent: {fileID: 0}
    m_Modifications:
    - target: {fileID: 2835690710641610680, guid: a4aa4639405a1a44c93b33663b425446, type: 3}
      propertyPath: m_LocalPosition.x
      value: 7.16
      objectReference: {fileID: 0}
    - target: {fileID: 2835690710641610680, guid: a4aa4639405a1a44c93b33663b425446, type: 3}
      propertyPath: m_LocalPosition.y
      value: 3.39
      objectReference: {fileID: 0}
    - target: {fileID: 2835690710641610680, guid: a4aa4639405a1a44c93b33663b425446, type: 3}
      propertyPath: m_LocalPosition.z
      value: 0
      objectReference: {fileID: 0}
    - target: {fileID: 2835690710641610680, guid: a4aa4639405a1a44c93b33663b425446, type: 3}
      propertyPath: m_LocalRotation.x
      value: -0
      objectReference: {fileID: 0}
    - target: {fileID: 2835690710641610680, guid: a4aa4639405a1a44c93b33663b425446, type: 3}
      propertyPath: m_LocalRotation.y
      value: -0
      objectReference: {fileID: 0}
    - target: {fileID: 2835690710641610680, guid: a4aa4639405a1a44c93b33663b425446, type: 3}
      propertyPath: m_LocalRotation.z
      value: -0
      objectReference: {fileID: 0}
    - target: {fileID: 2835690710641610680, guid: a4aa4639405a1a44c93b33663b425446, type: 3}
      propertyPath: m_LocalRotation.w
      value: 1
      objectReference: {fileID: 0}
    - target: {fileID: 2835690710641610680, guid: a4aa4639405a1a44c93b33663b425446, type: 3}
      propertyPath: m_RootOrder
      value: 0
      objectReference: {fileID: 0}
    - target: {fileID: 2835690710641610680, guid: a4aa4639405a1a44c93b33663b425446, type: 3}
      propertyPath: m_LocalEulerAnglesHint.x
      value: 0
      objectReference: {fileID: 0}
    - target: {fileID: 2835690710641610680, guid: a4aa4639405a1a44c93b33663b425446, type: 3}
      propertyPath: m_LocalEulerAnglesHint.y
      value: 0
      objectReference: {fileID: 0}
    - target: {fileID: 2835690710641610680, guid: a4aa4639405a1a44c93b33663b425446, type: 3}
      propertyPath: m_LocalEulerAnglesHint.z
      value: 0
      objectReference: {fileID: 0}
    - target: {fileID: 2835690710641610681, guid: a4aa4639405a1a44c93b33663b425446, type: 3}
      propertyPath: m_Name
      value: Exit Portal
      objectReference: {fileID: 0}
    m_RemovedComponents: []
  m_SourcePrefab: {fileID: 100100000, guid: a4aa4639405a1a44c93b33663b425446, type: 3}
--- !u!1001 &1758107658
PrefabInstance:
  m_ObjectHideFlags: 0
  serializedVersion: 2
  m_Modification:
    m_TransformParent: {fileID: 0}
    m_Modifications:
    - target: {fileID: 3880993385314744888, guid: fec2397ce3929cf4e880546c035ac818, type: 3}
      propertyPath: m_LocalPosition.x
      value: -9.89
      objectReference: {fileID: 0}
    - target: {fileID: 3880993385314744888, guid: fec2397ce3929cf4e880546c035ac818, type: 3}
      propertyPath: m_LocalPosition.y
      value: 0.12
      objectReference: {fileID: 0}
    - target: {fileID: 3880993385314744888, guid: fec2397ce3929cf4e880546c035ac818, type: 3}
      propertyPath: m_LocalPosition.z
      value: 0
      objectReference: {fileID: 0}
    - target: {fileID: 3880993385314744888, guid: fec2397ce3929cf4e880546c035ac818, type: 3}
      propertyPath: m_LocalRotation.x
      value: 0
      objectReference: {fileID: 0}
    - target: {fileID: 3880993385314744888, guid: fec2397ce3929cf4e880546c035ac818, type: 3}
      propertyPath: m_LocalRotation.y
      value: 0
      objectReference: {fileID: 0}
    - target: {fileID: 3880993385314744888, guid: fec2397ce3929cf4e880546c035ac818, type: 3}
      propertyPath: m_LocalRotation.z
      value: 0
      objectReference: {fileID: 0}
    - target: {fileID: 3880993385314744888, guid: fec2397ce3929cf4e880546c035ac818, type: 3}
      propertyPath: m_LocalRotation.w
      value: 1
      objectReference: {fileID: 0}
    - target: {fileID: 3880993385314744888, guid: fec2397ce3929cf4e880546c035ac818, type: 3}
      propertyPath: m_RootOrder
      value: 5
      objectReference: {fileID: 0}
    - target: {fileID: 3880993385314744888, guid: fec2397ce3929cf4e880546c035ac818, type: 3}
      propertyPath: m_LocalEulerAnglesHint.x
      value: 0
      objectReference: {fileID: 0}
    - target: {fileID: 3880993385314744888, guid: fec2397ce3929cf4e880546c035ac818, type: 3}
      propertyPath: m_LocalEulerAnglesHint.y
      value: 0
      objectReference: {fileID: 0}
    - target: {fileID: 3880993385314744888, guid: fec2397ce3929cf4e880546c035ac818, type: 3}
      propertyPath: m_LocalEulerAnglesHint.z
      value: 0
      objectReference: {fileID: 0}
    - target: {fileID: 3880993385314744888, guid: fec2397ce3929cf4e880546c035ac818, type: 3}
      propertyPath: m_LocalScale.y
      value: 8.229466
      objectReference: {fileID: 0}
    - target: {fileID: 3880993385314744890, guid: fec2397ce3929cf4e880546c035ac818, type: 3}
      propertyPath: m_Name
      value: Asteroid (14)
      objectReference: {fileID: 0}
    m_RemovedComponents: []
  m_SourcePrefab: {fileID: 100100000, guid: fec2397ce3929cf4e880546c035ac818, type: 3}
--- !u!224 &2035144839 stripped
RectTransform:
  m_CorrespondingSourceObject: {fileID: 1134542818765848363, guid: d48a1ffeb945f554d9036a9881f9264b, type: 3}
  m_PrefabInstance: {fileID: 166976938}
  m_PrefabAsset: {fileID: 0}
